<?xml version="1.0" standalone="no"?>
<!DOCTYPE svg PUBLIC "-//W3C//DTD SVG 20010904//EN"
 "http://www.w3.org/TR/2001/REC-SVG-20010904/DTD/svg10.dtd">
<svg version="1.0" xmlns="http://www.w3.org/2000/svg"
 width="512.000000pt" height="512.000000pt" viewBox="0 0 512.000000 512.000000"
 preserveAspectRatio="xMidYMid meet">

<g transform="translate(0.000000,512.000000) scale(0.100000,-0.100000)"
fill="#62a7c4" stroke="none">
<path d="M2518 2663 l-3 -1818 -49 85 c-27 47 -50 87 -52 89 -5 5 -84 -42 -84
-51 0 -8 217 -388 229 -401 6 -6 254 344 268 379 2 6 -14 23 -36 37 l-41 27
-47 -68 c-27 -37 -56 -79 -65 -93 -16 -23 -17 82 -17 1804 l-1 1827 -50 0 -50
0 -2 -1817z"/>
</g>
</svg>
